[gd_scene load_steps=2 format=2]

[ext_resource path="res://Scripts/Main.gd" type="Script" id=7]

[node name="Main" type="Control"]
anchor_right = 1.0
anchor_bottom = 1.0
script = ExtResource( 7 )
__meta__ = {
"_edit_use_anchors_": false
}

[node name="Stack" type="Control" parent="."]
anchor_right = 1.0
anchor_bottom = 1.0

[node name="Tween" type="Tween" parent="."]
